{
    "count": 21,
    "next": "https://example.com/api/v1/contacts.json?page=2&before=2014-12-12T22:34:36.123",
    "previous": null,
    "results": [
        {
            "uuid": "bfff9984-38f4-4e59-998d-000000000001",
            "name": "Contact #1",
            "language": null,
            "group_uuids": [],
            "urns": [
                "tel:+250700000001"
            ],
            "fields": {},
            "blocked": false,
            "failed": false,
            "modified_on": "2014-10-01T06:54:09.817Z",
            "phone": "+250700000002",
            "groups": []
        },
        {
            "uuid": "bfff9984-38f4-4e59-998d-000000000002",
            "name": "Contact #2",
            "language": null,
            "group_uuids": [],
            "urns": [
                "tel:+250700000002"
            ],
            "fields": {},
            "blocked": false,
            "failed": false,
            "modified_on": "2014-10-01T06:54:09.817Z",
            "phone": "+250700000002",
            "groups": []
        },
        {
            "uuid": "bfff9984-38f4-4e59-998d-000000000003",
            "name": "Contact #3",
            "language": null,
            "group_uuids": [],
            "urns": [
                "tel:+250700000003"
            ],
            "fields": {},
            "blocked": false,
            "failed": false,
            "modified_on": "2014-10-01T06:54:09.817Z",
            "phone": "+250700000003",
            "groups": []
        },
        {
            "uuid": "bfff9984-38f4-4e59-998d-000000000004",
            "name": "Contact #4",
            "language": null,
            "group_uuids": [],
            "urns": [
                "tel:+250700000004"
            ],
            "fields": {},
            "blocked": false,
            "failed": false,
            "modified_on": "2014-10-01T06:54:09.817Z",
            "phone": "+250700000004",
            "groups": []
        },
        {
            "uuid": "bfff9984-38f4-4e59-998d-000000000005",
            "name": "Contact #5",
            "language": null,
            "group_uuids": [],
            "urns": [
                "tel:+250700000005"
            ],
            "fields": {},
            "blocked": false,
            "failed": false,
            "modified_on": "2014-10-01T06:54:09.817Z",
            "phone": "+250700000005",
            "groups": []
        },
        {
            "uuid": "bfff9984-38f4-4e59-998d-000000000006",
            "name": "Contact #6",
            "language": null,
            "group_uuids": [],
            "urns": [
                "tel:+250700000006"
            ],
            "fields": {},
            "blocked": false,
            "failed": false,
            "modified_on": "2014-10-01T06:54:09.817Z",
            "phone": "+250700000006",
            "groups": []
        },
        {
            "uuid": "bfff9984-38f4-4e59-998d-000000000007",
            "name": "Contact #7",
            "language": null,
            "group_uuids": [],
            "urns": [
                "tel:+250700000007"
            ],
            "fields": {},
            "blocked": false,
            "failed": false,
            "modified_on": "2014-10-01T06:54:09.817Z",
            "phone": "+250700000007",
            "groups": []
        },
        {
            "uuid": "bfff9984-38f4-4e59-998d-000000000008",
            "name": "Contact #8",
            "language": null,
            "group_uuids": [],
            "urns": [
                "tel:+250700000008"
            ],
            "fields": {},
            "blocked": false,
            "failed": false,
            "modified_on": "2014-10-01T06:54:09.817Z",
            "phone": "+250700000008",
            "groups": []
        },
        {
            "uuid": "bfff9984-38f4-4e59-998d-000000000009",
            "name": "Contact #9",
            "language": null,
            "group_uuids": [],
            "urns": [
                "tel:+250700000009"
            ],
            "fields": {},
            "blocked": false,
            "failed": false,
            "modified_on": "2014-10-01T06:54:09.817Z",
            "phone": "+250700000009",
            "groups": []
        },
        {
            "uuid": "bfff9984-38f4-4e59-998d-000000000010",
            "name": "Contact #10",
            "language": null,
            "group_uuids": [],
            "urns": [
                "tel:+250700000010"
            ],
            "fields": {},
            "blocked": false,
            "failed": false,
            "modified_on": "2014-10-01T06:54:09.817Z",
            "phone": "+250700000010",
            "groups": []
        }
    ]
}