{
    "count": 21,
    "next": "https://example.com/api/v1/contacts.json?page=3&before=2014-12-12T22:34:36.123",
    "previous": "https://example.com/api/v1/contacts.json?page=1&before=2014-12-12T22:34:36.123",
    "results": [
        {
            "uuid": "bfff9984-38f4-4e59-998d-000000000011",
            "name": "Contact #11",
            "language": null,
            "group_uuids": [],
            "urns": [
                "tel:+250700000011"
            ],
            "fields": {},
            "blocked": false,
            "failed": false,
            "modified_on": "2014-10-01T06:54:09.817Z",
            "phone": "+250700000011",
            "groups": []
        },
        {
            "uuid": "bfff9984-38f4-4e59-998d-000000000012",
            "name": "Contact #12",
            "language": null,
            "group_uuids": [],
            "urns": [
                "tel:+250700000012"
            ],
            "fields": {},
            "blocked": false,
            "failed": false,
            "modified_on": "2014-10-01T06:54:09.817Z",
            "phone": "+250700000012",
            "groups": []
        },{
            "uuid": "bfff9984-38f4-4e59-998d-000000000013",
            "name": "Contact #13",
            "language": null,
            "group_uuids": [],
            "urns": [
                "tel:+250700000013"
            ],
            "fields": {},
            "blocked": false,
            "failed": false,
            "modified_on": "2014-10-01T06:54:09.817Z",
            "phone": "+250700000013",
            "groups": []
        },{
            "uuid": "bfff9984-38f4-4e59-998d-000000000014",
            "name": "Contact #14",
            "language": null,
            "group_uuids": [],
            "urns": [
                "tel:+250700000014"
            ],
            "fields": {},
            "blocked": false,
            "failed": false,
            "modified_on": "2014-10-01T06:54:09.817Z",
            "phone": "+250700000014",
            "groups": []
        },
        {
            "uuid": "bfff9984-38f4-4e59-998d-000000000015",
            "name": "Contact #15",
            "language": null,
            "group_uuids": [],
            "urns": [
                "tel:+250700000015"
            ],
            "fields": {},
            "blocked": false,
            "failed": false,
            "modified_on": "2014-10-01T06:54:09.817Z",
            "phone": "+250700000015",
            "groups": []
        },
        {
            "uuid": "bfff9984-38f4-4e59-998d-000000000016",
            "name": "Contact #16",
            "language": null,
            "group_uuids": [],
            "urns": [
                "tel:+250700000016"
            ],
            "fields": {},
            "blocked": false,
            "failed": false,
            "modified_on": "2014-10-01T06:54:09.817Z",
            "phone": "+250700000016",
            "groups": []
        },
        {
            "uuid": "bfff9984-38f4-4e59-998d-000000000017",
            "name": "Contact #17",
            "language": null,
            "group_uuids": [],
            "urns": [
                "tel:+250700000017"
            ],
            "fields": {},
            "blocked": false,
            "failed": false,
            "modified_on": "2014-10-01T06:54:09.817Z",
            "phone": "+250700000017",
            "groups": []
        },
        {
            "uuid": "bfff9984-38f4-4e59-998d-000000000018",
            "name": "Contact #18",
            "language": null,
            "group_uuids": [],
            "urns": [
                "tel:+250700000018"
            ],
            "fields": {},
            "blocked": false,
            "failed": false,
            "modified_on": "2014-10-01T06:54:09.817Z",
            "phone": "+250700000018",
            "groups": []
        },
        {
            "uuid": "bfff9984-38f4-4e59-998d-000000000019",
            "name": "Contact #19",
            "language": null,
            "group_uuids": [],
            "urns": [
                "tel:+250700000019"
            ],
            "fields": {},
            "blocked": false,
            "failed": false,
            "modified_on": "2014-10-01T06:54:09.817Z",
            "phone": "+250700000019",
            "groups": []
        },
        {
            "uuid": "bfff9984-38f4-4e59-998d-000000000020",
            "name": "Contact #20",
            "language": null,
            "group_uuids": [],
            "urns": [
                "tel:+250700000020"
            ],
            "fields": {},
            "blocked": false,
            "failed": false,
            "modified_on": "2014-10-01T06:54:09.817Z",
            "phone": "+250700000020",
            "groups": []
        }
    ]
}